<svg xmlns="http://www.w3.org/2000/svg" width="196" height="39" viewBox="0 0 196 39">
    <g fill="none" fill-rule="evenodd">
        <path fill="#EC1C24" d="M30.174 5.665h-.944c-5.32 0-9.638 4.246-9.638 9.509v13.554h6.943v-13.22c0-1.986 1.617-3.572 3.639-3.572h4.06V5.665H30.175zm34.964 9.022c.068-2.127 2.07-3.864 4.551-3.864 2.512 0 4.53 1.719 4.565 3.864h-9.116zm15.854 3.2c-.05-7.144-3.983-12.762-11.303-12.762-6.286 0-11.359 5.006-11.359 11.901 0 7.438 4.61 11.84 11.408 11.974a11.69 11.69 0 0 0 10.245-6.037l-6.361-1.638c-.772 1.146-2.241 1.939-3.933 1.939-2.482 0-4.483-1.753-4.55-3.878h15.853c.018-.335 0-1.146 0-1.5zM50.085 19.42c0 1.958-1.62 3.577-3.641 3.577-2.002 0-3.611-1.62-3.611-3.577V8.967c0-1.822-1.493-3.302-3.359-3.302h-3.617v12.86C35.857 24.312 39.031 29 46.444 29c7.422 0 10.596-4.689 10.596-10.474V5.665h-6.955V19.42zM10.22 0H3.276v5.665H0v6.27h3.276v7.35c0 5.77 4.737 9.443 10.589 9.443h4.094v-6.004h-4.115c-2 0-3.624-1.598-3.624-3.574v-7.214l4.556-.015a3.294 3.294 0 0 0 3.183-3.29V5.664H10.22V0z"/>
        <path fill="#F48120" d="M127.02 5c-2.818 0-5.315 1.329-7.092 3.46-1.814 2.156-2.928 5.066-2.928 8.377 0 3.22 1.114 6.577 2.928 8.707 1.777 2.128 4.274 3.456 7.093 3.456 2.747 0 5.265-1.328 7.051-3.456 1.824-2.13 2.928-5.487 2.928-8.707 0-3.265-1.104-6.221-2.928-8.376C132.286 6.329 129.768 5 127.021 5m3.811 16.994c-.928 1.208-2.229 1.962-3.811 1.962-1.61 0-2.924-.754-3.843-1.962-.936-1.232-1.449-3.286-1.449-5.157 0-1.894.513-3.62 1.449-4.805.919-1.228 2.234-2.012 3.843-2.012 1.582 0 2.883.784 3.811 2.012.917 1.185 1.454 2.911 1.454 4.805 0 1.871-.537 3.925-1.454 5.157M149.803 5c-2.292 0-4.53 1.243-5.905 3.105v-.027c0-.76-.271-1.5-.718-2.024-.444-.524-1.073-.859-1.748-.859-.694 0-1.28.335-1.738.879-.41.503-.694 1.243-.694 2.004V26.23c0 .765.283 1.48.727 1.956.447.481 1.064.814 1.746.814.674 0 1.263-.333 1.707-.814.447-.476.718-1.19.718-1.956V15.832c0-1.523.434-3.003 1.226-4.03.802-1.052 1.975-1.742 3.518-1.742 1.487 0 2.585.62 3.31 1.623.772 1.027 1.165 2.483 1.165 4.106v10.44c0 .766.249 1.481.728 1.957.442.481 1.05.814 1.733.814.674 0 1.284-.333 1.708-.814.433-.476.714-1.19.714-1.956V15.622c0-2.983-.735-5.655-2.149-7.564-1.39-1.913-3.47-3.08-6.048-3.058M177.747 21.946h-.032c-.4-.59-1.004-.948-1.62-.948-.451 0-.898.144-1.295.571-1.47 1.634-3.289 2.65-5.408 2.65-1.497 0-2.775-.615-3.726-1.585-.853-.899-1.47-2.528-1.6-3.971h13.06c.494 0 .943-.193 1.292-.519.348-.359.582-.83.582-1.42 0-3.318-1.068-6.23-2.797-8.357-1.762-2.087-4.258-3.389-7.068-3.367-2.85 0-5.37 1.329-7.207 3.46-1.834 2.156-2.928 5.112-2.928 8.378 0 3.242 1.143 6.577 2.99 8.707 1.862 2.128 4.432 3.455 7.288 3.455 3.118 0 6.266-1.516 8.18-3.835v-.044c.42-.524.669-1.186.669-1.827 0-.47-.155-.923-.38-1.348m-8.612-12.161c1.353.026 2.496.569 3.381 1.468.802.829 1.34 1.964 1.577 3.27h-9.92c.263-1.378.792-2.49 1.568-3.317.876-.903 2.02-1.395 3.394-1.421"/>
        <path fill="#F48120" d="M196 8.582c0-1.102-.588-2.057-1.399-2.392h-.022a1.56 1.56 0 0 0-.699-.19c-.861 0-1.633.596-1.971 1.553l-4.874 13.08-4.956-13.105C181.762 6.596 180.964 6 180.098 6a2.1 2.1 0 0 0-.835.19h-.007c-.793.406-1.329 1.363-1.329 2.438 0 .145.034.289.083.479.173.646.633 2.01 1.246 3.685 1.738 4.857 4.687 12.433 5.299 14.06-1.293 3.228-3.383 5.883-6.239 7.41-.389.242-.715.506-.926.865-.253.404-.39.857-.39 1.39 0 .642.21 1.24.589 1.697.338.45.847.786 1.424.786.275 0 .56-.14.781-.241 4.373-2.007 7.437-6.168 9.229-10.999l6.79-18.124c.158-.335.187-.72.187-1.054M108.712 5c-2.656 0-5.095 1.562-6.38 3.955-.532-1.091-1.21-2.038-2.095-2.722C99.194 5.431 97.974 5 96.519 5c-2.083 0-3.594 1.233-4.795 3.032-.01-.759-.226-1.45-.647-1.965-.385-.543-1.02-.873-1.637-.873-.64 0-1.403.33-1.809.873C87.241 6.583 87 7.3 87 8.078v18.088c0 .756.24 1.468.623 1.983.382.524 1.114.851 1.723.851.65 0 1.337-.327 1.731-.85.424-.516.66-1.207.66-1.984V15.84c0-1.563.045-3.004.7-4.05.68-1.019 1.656-1.701 3.06-1.701 1.347.025 2.254.595 2.862 1.608.607.973.799 2.42.799 4.075v10.393c0 1.506.963 2.834 2.222 2.834.61 0 1.352-.327 1.75-.85.38-.516.686-1.228.686-1.984v-10.56c0-1.487.275-2.89.964-3.882.676-.991 1.65-1.634 3.008-1.634 1.377.025 2.24.595 2.86 1.608.601.973.623 2.42.623 4.075v10.393c0 .756.235 1.468.641 1.983.384.524 1.038.851 1.69.851.607 0 1.346-.327 1.748-.85.42-.516.65-1.207.65-1.984v-10.68c0-3.03-.513-5.61-1.742-7.476-1.181-1.943-3.049-3.03-5.546-3.01"/>
    </g>
</svg>
